[
    {
        "name": "teej",
        "type": "viewer_command",
        "scene": "codin"
    },
    {
        "name": "primeagen",
        "type": "viewer_command",
        "scene": "codin"
    },
    {
        "name": "zoom",
        "type": "generic_command",
        "scene": "codin"
    },
    {
        "name": "rise",
        "type": "generic_command",
        "scene": "codin"
    },
    {
        "name": "rotate",
        "type": "generic_command",
        "scene": "codin"
    }
]
