{
  "variables": {
    "LINODE_TOKEN": "{{env `PACKER_TOKEN`}}"
  },
  "builders": [{
    "type": "linode",
    "linode_token": "{{user `LINODE_TOKEN`}}",
    "image": "linode/arch",
    "region": "us-east",
    "instance_type": "g6-nanode-1",
    "ssh_username": "root"
  }]
}
