// func updateSourceSettings(c *obsws.Client, mutex *sync.Mutex) {
// 	// func NewSetSceneItemRenderRequest(
// 	sourceType := "ffmpeg_source"
// 	sourceSettings := map[string]interface{}{
// 		"Render": true,
// 	}
// 	mutex.Lock()
// 	req := obsws.NewSetSourceSettingsRequest(
// 		"sealspin", sourceType, sourceSettings,
// 	)
// 	if err := req.Send(*c); err != nil {
// 		log.Fatal(err)
// 	}
// 	resp, err := req.Receive()
// 	mutex.Unlock()
// 	if err != nil {
// 		log.Fatal(err)
// 	}
// 	fmt.Printf("resp = %+v\n", resp)
// }

